<?xml version="1.0" encoding="utf-8"?>
<!-- Generator: Adobe Illustrator 22.0.1, SVG Export Plug-In . SVG Version: 6.00 Build 0)  -->
<!DOCTYPE svg PUBLIC "-//W3C//DTD SVG 1.1//EN" "http://www.w3.org/Graphics/SVG/1.1/DTD/svg11.dtd">
<svg version="1.1" id="Layer_1" xmlns="http://www.w3.org/2000/svg" xmlns:xlink="http://www.w3.org/1999/xlink" x="0px" y="0px"
	 width="25.99988px" height="25.99988px" viewBox="0 0 25.99988 25.99988" style="enable-background:new 0 0 25.99988 25.99988;"
	 xml:space="preserve">
<style type="text/css">
	.st0{fill-rule:evenodd;clip-rule:evenodd;fill:#CDAE7F;}
</style>
<g id="Engine_x5F_Icon_x5F_Transparent_x5F_1024x1024_1_">
	<g id="Ellipse_2">
		<g>
			<path class="st0" d="M12.99994,0C5.82031,0,0,5.82025,0,12.99994c0,7.17963,5.82031,12.99994,12.99994,12.99994
				c7.17969,0,12.99994-5.82031,12.99994-12.99994C25.99988,5.82025,20.17963,0,12.99994,0z M13.0271,25.07861
				c-6.65588,0-12.05157-5.39563-12.05157-12.05151c0-6.65594,5.39569-12.05157,12.05157-12.05157
				S25.07867,6.37115,25.07867,13.0271C25.07867,19.68298,19.68298,25.07861,13.0271,25.07861z"/>
		</g>
	</g>
	<g id="Knob">
		<g>
			<path class="st0" d="M21.15118,6.26074c0-0.76825-0.62683-1.39331-1.39734-1.39331s-1.39728,0.62506-1.39728,1.39331
				c0,0.76831,0.62677,1.39331,1.39728,1.39331S21.15118,7.02905,21.15118,6.26074z M21.7016,7.76642
				c-0.25427,0.32629-0.58746,0.5882-0.97272,0.75409c1.98486,3.41003,1.51819,7.86011-1.4068,10.77673l0.86517,0.86267
				C23.55334,16.80347,24.05518,11.66083,21.7016,7.76642z M5.81543,5.82941c-3.96222,3.95081-3.96222,10.37964,0,14.33051
				l0.00006,0.00006L6.6806,19.2973c-3.48517-3.47534-3.48517-9.13,0.00006-12.60535
				c1.7428-1.73779,4.03137-2.60632,6.32074-2.60632c1.55255,0,3.10461,0.40192,4.48669,1.2019
				c0.16638-0.38354,0.42865-0.71539,0.75549-0.96875C14.33807,1.97272,9.1814,2.47327,5.81543,5.82941z"/>
		</g>
	</g>
	<g id="Shape_1">
		<g>
			<path class="st0" d="M9.42328,9.3382l-1.55444,7.32349h8.70898L18.1311,9.3382H9.42328z M16.26038,14.27234l-0.33228,1.56744
				H8.86523l1.20721-5.68005h7.06403l-4.26654,4.11261H16.26038z"/>
		</g>
	</g>
</g>
</svg>
